http://www.nostarch.com/download/Car%20Hackers%20Handbook_sample_Chapter5.pdf
http://www.nostarch.com/download/Car%20Hackers%20Handbook_sample_dTOC.pdf
http://www.nostarch.com/download/Car%20Hackers%20Handbook_sample_index.pdf
https://www.usenix.org/system/files/login/articles/login_summer16_19_books.pdf
